<?xml version="1.0" encoding="UTF-8" standalone="no"?>
<svg
   xmlns:dc="http://purl.org/dc/elements/1.1/"
   xmlns:cc="http://creativecommons.org/ns#"
   xmlns:rdf="http://www.w3.org/1999/02/22-rdf-syntax-ns#"
   xmlns:svg="http://www.w3.org/2000/svg"
   xmlns="http://www.w3.org/2000/svg"
   id="svg8"
   version="1.1"
   height="600"
   width="900">
  <metadata
     id="metadata14">
    <rdf:RDF>
      <cc:Work
         rdf:about="">
        <dc:format>image/svg+xml</dc:format>
        <dc:type
           rdf:resource="http://purl.org/dc/dcmitype/StillImage" />
      </cc:Work>
    </rdf:RDF>
  </metadata>
  <defs
     id="defs12" />
  <rect
     style="fill:#ed2939"
     y="0"
     x="0"
     id="rect2"
     height="600"
     width="900" />
  <rect
     style="fill:#ffffff"
     y="0"
     x="0"
     id="rect4"
     height="600"
     width="600" />
  <rect
     style="fill:#002395"
     y="0"
     x="0"
     id="rect6"
     height="600"
     width="300" />
</svg>
