<?xml version="1.0" encoding="UTF-8"?>
<!DOCTYPE svg  PUBLIC '-//W3C//DTD SVG 20010904//EN'  'http://www.w3.org/TR/2001/REC-SVG-20010904/DTD/svg10.dtd'>
<svg width="300pt" height="154pt" version="1.0" viewBox="0 0 300.000000 154.000000" xmlns="http://www.w3.org/2000/svg">
<g transform="translate(0 154) scale(.1 -.1)" fill="#fff">
<path d="m455 1440c-21-23-19-47 4-62 15-9 17-15 9-26-7-8-12-54-12-111-1-65-5-103-14-114-10-12-11-21-3-36 6-11 11-31 11-44 0-24-3-25-52-25-29 0-88-4-131-9-69-7-80-6-97 11-16 17-22 18-50 6-58-24-64-44-66-234-3-236 21-307 98-292 18 4 42 7 53 7 59-1 168-8 223-16 70-9 64 4 68-140 5-186 28-306 55-289 10 6 2 45-12 54-4 3-4 23 1 44 5 22 5 49 0 61-5 13-6 25-3 28s-3 19-13 36c-17 29-17 31 0 64 15 27 16 38 7 55s-9 22 0 22c7 0 5 8-6 20-10 11-13 20-8 20 13 0 23 34 14 47-3 5-26 9-51 8s-61 2-80 7c-48 11-211 19-224 10-6-4-23-7-37-8-31-2-48 25-43 68 1 16-2 28-8 28-7 0-6 5 1 14 7 8 8 15 2 18-6 2-6 20-1 48 7 35 5 49-7 63-11 11-12 17-4 17 9 0 11 24 7 93l-4 92 33 22 33 22 17-23c15-19 25-22 83-21 37 1 77 7 89 13 26 14 70 16 78 2 3-5 12-7 21-3 8 3 21-3 28-13 12-16 14-12 17 40 3 45 0 61-13 73-10 9-15 20-11 26s10 4 18-6c9-12 11-7 10 26 0 23-5 51-11 62-14 24-3 59 23 73 12 7 18 23 18 54 1 24 4 49 8 55 8 13-8 27-22 19-5-4-16-3-25 0-27 10-2 37 35 39 47 2 50-1 33-42-9-19-12-39-7-44 4-4 9 4 10 18 2 38 25 54 79 56 27 1 55 6 63 11s16 4 20-2c3-6 54-10 124-9 64 0 120-3 125-7 12-13 15-95 8-246-2-49 0-90 6-97 7-9 7-13-1-13-7 0-10-11-7-27 2-16 5-34 5-41 1-10 10-12 34-6 50 11 121 11 129 0 5-7 8-4 8 7 0 9 6 17 14 17s13-8 12-17c-1-13 7-19 29-20 27-2 28-2 8 7-13 5-23 16-23 25 0 8-6 15-13 15s-13 9-14 20c-2 19-1 19 22 2 13-9 26-25 29-36 4-16 11-18 43-13 21 3 54 2 73-2 19-5 29-9 21-10s-12-4-9-7 15 0 26 7c18 11 24 10 42-6 11-10 16-21 11-25-7-3-7-37-2-90 4-47 7-132 5-190-3-102-4-105-29-113-14-5-22-13-18-19 4-8-2-9-18-3-13 5-46 9-74 10-27 0-59 5-69 10-13 6-21 5-24-3-2-7-14-12-27-12s-27-5-30-11c-4-6-14-7-24-3-9 3-23 8-31 9s-23 6-33 10-23 2-32-5c-8-6-19-9-25-5-8 5-10-9-7-44 1-28 0-52-5-53-4-2-4-19 0-38s5-51 2-70-2-66 2-105c4-40 2-84-3-102-9-28-15-33-42-33-18 0-67-3-110-6-62-5-82-3-103 10-23 16-28 16-79-3-30-12-55-18-55-14s-6 1-12-5c-10-10-10-15 2-22 9-6 17-5 22 3 6 9 8 9 8 0s13-8 48 6c45 18 87 16 80-4-2-6 8-11 22-12 23-2 23-2 5 6-14 7-16 10-4 10 8 1 20-4 25-9 15-15 184 7 204 26 11 10 16 41 17 107 1 51 5 107 7 126 4 28 3 31-7 17s-12-8-12 34c0 27 3 50 7 50 5 0 7 3 7 8-1 4-1 26 0 50l1 43 58-7c32-3 75-1 96 5 27 7 63 7 117 0 71-9 83-8 118 11 22 11 42 24 46 30 7 11 7 305 0 385-6 72-26 85-129 85-75 0-85 2-106 25-13 14-31 25-40 25s-22-11-28-25c-11-23-17-25-77-25h-66l6 148c3 81 3 171-1 200-10 82-11 83-288 86-211 3-237 1-251-14zm45-110c-19-12-30-12-30-1 0 10 31 20 40 14 2-2-2-8-10-13zm3-30c-6-23-33-27-33-6 0 13 13 23 32 25 3 1 4-8 1-19zm-436-457c-3-10-5-2-5 17s2 27 5 18c2-10 2-26 0-35zm5-208c3-14 1-25-3-25-5 0-9 11-9 25s2 25 4 25 6-11 8-25zm785-571c-3-3-12-4-19-1-8 3-5 6 6 6 11 1 17-2 13-5zm46-1c-7-2-19-2-25 0-7 3-2 5 12 5s19-2 13-5z"/>
<path d="m686 1413c-3-4-29-7-57-7-51-1-69-13-69-49 0-11-8-30-19-43-13-17-17-35-15-70 2-26 0-52-4-58-12-16-13-58-2-72 7-7 6-23-1-43-7-19-9-59-6-92 5-53 3-59-14-59-11 0-19 7-19 16s-6 14-12 11c-7-2-21 0-30 5-11 5-18 5-18-1 0-5-17-8-37-6-21 1-42 0-47-3s-41-7-80-9c-39-3-83-10-98-18-19-9-28-10-31-2-2 6-4-22-5-62-1-42 2-79 9-87 6-7 7-19 3-26-5-7-9-39-9-71 0-53 2-57 21-55 12 2 27-2 35-8 8-7 25-14 39-18 14-3 19-3 12 0-10 5-9 10 4 25 20 23 38 25 30 4-4-11 1-15 17-15 12 0 31-7 42-16 15-11 44-15 110-14 117 2 115 2 115-11 0-6 7-17 15-25 17-17 20-44 6-44-5 0-8-31-6-70 3-38 0-72-5-75-12-7-13-26-2-24 19 3 26-2 13-10-12-8-12-12-2-25 8-10 9-21 3-33-12-22-5-43 14-43 8 0 14-7 14-15s-6-15-13-15c-9 0-14-12-15-30-1-25 3-30 22-30 12 0 26 3 29 7 4 4 35 5 70 4 139-7 152-6 179 14 31 23 38 49 11 41-25-8-51 10-37 24 9 9 14 9 18 1 16-25 25-7 24 46-1 48 2 59 20 71 21 14 31 34 15 30-21-5-53 15-53 34 0 16 3 18 13 9 25-20 49 22 57 101 11 100 15 108 51 98 26-8 29-6 29 16 0 15 6 24 16 24 9 0 12-5 8-12-4-6-3-8 4-4 15 9 27-13 13-27-19-19-13-22 49-23 59-1 60-1 60 26 0 37 37 49 46 15 7-28 44-47 66-34 11 6 19 5 23-1 3-5 11-10 16-10 6 0 8 4 5 9s1 11 9 15c8 3 15 11 15 18 0 8 9 21 20 31 21 18 29 87 10 87-5 0-10 5-10 11 0 5 4 7 10 4 6-4 7 18 3 62-3 37-6 78-6 90 1 17-8 25-33 33-19 7-34 16-34 21 0 14-38 11-43-3-4-10-8-10-15 1-9 12-15 12-43 1-25-11-34-11-37-2-5 16-64 16-80 0-7-7-12-8-12-2 0 5-28 9-62 8-35 0-67 3-73 7-10 7-11 323-1 366 3 13-2 29-10 38-14 13-14 16 0 21 35 13 12 20-69 21-53 0-82-3-79-9 4-6-1-6-13 0-11 6-28 9-39 8-10-2-24 0-30 5s-14 6-18 2zm224-252c6-258-3-243 147-237 57 2 105 0 108-4 3-5 14-7 24-5 48 9 100 8 128-4l30-12 6-112c5-103 4-114-16-144-28-42-76-46-101-8-21 32-51 32-80 0-30-32-41-32-83 6l-35 30-22-20c-12-12-32-21-45-21-28 0-51-52-59-133-4-49-8-59-31-70-30-14-39-51-18-75 10-11 12-24 7-37-5-11-9-32-9-47-1-16-9-33-20-40-16-10-18-16-9-32s6-23-12-38-32-17-74-12c-28 4-53 9-56 12s20 2 51-2c46-5 59-3 70 11 8 9 9 14 2 10-6-4-54-9-107-11l-96-4 6 24c4 13 1 31-6 39-8 10-13 65-15 162-4 179-2 164-21 188-11 15-31 21-92 26-42 3-89 3-104-2-15-4-28-4-30 0-6 13-79 51-98 51-10 0-23-7-28-16s-18-14-28-12c-15 3-19 12-19 43 0 22-6 51-13 64-12 20-12 22 0 16 10-6 10-5 1 5-6 7-9 19-6 28 4 10 2 13-5 8-7-4-12-2-12 3 0 6 5 11 10 11 6 0 10 10 10 23 0 18-2 19-11 7-8-11-9-9-4 10 14 51 39 64 117 65 40 0 79 4 86 8 7 5 47 1 89-9 73-16 77-16 89 1 7 10 13 36 13 59 0 22 2 104 6 181 6 111 12 148 28 180 11 22 25 43 31 47s76 6 156 5l145-2 5-214zm-746-476c-4-8-10-12-15-9-11 6-2 24 11 24 5 0 7-7 4-15z"/>
<path d="m218 893c7-3 16-2 19 1 4 3-2 6-13 5-11 0-14-3-6-6z"/>
<path d="m624 249c-10-17 13-36 27-22 12 12 4 33-11 33-5 0-12-5-16-11zm26-9c0-5-4-10-10-10-5 0-10 5-10 10 0 6 5 10 10 10 6 0 10-4 10-10z"/>
<path d="m1941 1374c-24-19-56-52-71-72-34-46-66-79-113-115-21-15-37-33-37-40s-9-30-19-51c-11-21-17-45-14-54 9-25 45-62 60-62 8 0 23-15 33-33 11-19 31-40 45-47 14-8 34-28 45-44 10-17 32-44 49-60 17-17 31-34 31-39 0-15-68-89-100-109-17-10-38-35-46-54-8-20-34-57-58-83-41-43-80-121-54-105 8 5 9 1 5-10-5-13-1-19 13-23 11-3 18-9 15-13s15-16 40-27c35-14 45-23 43-38-2-12 3-20 11-20s16-6 19-14c3-9 0-11-9-6-8 5-11 4-6-1s14-9 20-9c7-1 11-6 10-12s16-25 39-44c23-18 38-27 34-21-11 18 10 14 25-5 12-14 12-16-1-9-8 5-1-3 15-18 38-32 51-32 98-1 34 23 42 35 38 57 0 5 3 7 8 5 6-1 25 13 43 31 65 63 108 107 137 139 38 42 55 41 86-4 14-21 43-47 64-59 21-11 62-48 91-83 28-34 61-66 73-70 62-23 61-24 134 46 39 38 94 95 123 128 28 33 62 71 74 85 50 54 45 74-41 164-36 36-48 57-50 83-2 42-21 69-37 53-18-18-40-10-85 29l-44 39 36 44c20 23 62 66 95 93 69 59 142 146 142 169 0 28-47 89-100 131-29 22-58 52-66 67s-23 32-34 38c-10 5-33 23-51 40-47 42-84 56-115 41-14-6-34-11-46-11-13 0-48-28-91-72-38-40-77-73-85-73-9 0-25-18-36-39-12-22-26-41-32-43s-23 12-38 32c-15 19-42 41-59 49-40 16-107 89-107 115 0 11-10 27-22 35-36 25-78 18-127-20zm76-7c-1-5 4-12 12-15 10-3 12 0 8 12-7 17 1 20 19 8 7-4 10-21 8-37-3-26 1-33 26-42 17-6 30-18 30-27s6-16 14-16 16-6 19-14 18-17 34-21c32-7 86-77 77-100-8-19-34-20-34 0 0 8-7 15-15 15s-15 7-15 15-5 15-11 15-16 6-23 13c-7 6-25 21-40 32s-38 29-50 40-33 28-46 38c-14 10-19 15-13 12 9-4 11-1 6 10-5 13-7 14-14 3s-11-10-19 2c-9 13-14 7-11-12 0-5-3-8-9-8-17 0-90-74-90-92 0-11-7-18-20-18-11 0-20-5-20-12 0-6-16-25-36-43-31-28-33-33-20-45 9-7 16-21 16-31 0-16 30-32 64-34 5 0 11-6 14-14 3-9 0-11-9-6-9 6-9 2 2-11 9-10 19-31 23-46 3-14 18-40 32-57s20-31 14-31c-17 0 6-28 34-41 16-8 15-6-4 10-14 11-22 23-18 26 3 4 21-7 38-24 18-16 36-31 41-33 14-5-3-79-20-86-21-8-65-51-80-80-6-12-21-22-32-22-15 0-19-5-15-15 3-9 0-15-10-15s-14-6-10-15c3-9-3-19-17-26-29-16-38-31-26-45 15-18-7-27-32-13-17 9-20 8-17-3 3-7-2-18-11-24-13-10-13-14-2-28 7-9 21-16 30-16s34-21 56-46c77-89 94-104 135-113 43-9 67 4 36 21-17 9-22 38-7 38 5 0 11-7 15-15 5-13 9-13 26-3 11 7 20 18 20 25s18 22 41 34c23 11 38 16 35 11-7-11 20-10 29 1 3 4 2 5-2 2-3-3-12 7-20 22-12 23-12 29 2 42 13 14 15 14 15-2 0-30 45-19 100 25 28 24 53 41 54 38s10 3 20 12c16 16 18 16 47-15 17-18 28-27 25-21-3 7 0 17 8 23 17 14 37-7 27-29-10-24-37-22-62 5-13 13-28 25-32 25-12 0 26-49 38-50 13-1 75-57 75-69 0-17 34-22 42-7 11 20 61 17 53-2-18-47-16-60 12-89 16-16 35-27 42-25s15-5 18-17c6-24 23-28 23-6 0 8-5 15-11 15-5 0-7 5-3 11 3 6 17 8 29 5 17-4 32 2 56 23 17 16 28 34 25 40-4 6-1 9 6 6 7-2 29 16 48 41s43 54 53 64c18 21 23 50 8 50-14 0-19 35-9 54 10 18-5 46-26 46-6 0-3-7 7-14 9-7 17-17 17-22 0-4-5-3-11 3s-18 9-27 5c-11-4-14-1-9 11 3 9 2 19-3 22-6 4-10 1-10-4 0-6-10-1-22 11-13 13-22 28-20 34 3 15-48 49-68 46-11-2-12-1-3 6 9 6 8 12-7 25-11 9-25 17-30 17-6 0-10 7-10 15s-9 20-20 27c-28 18-26 25 20 65 22 20 40 40 40 45 0 10 127 138 136 138 14 0 64 67 59 79-4 9 1 12 15 8 36-9 14 29-31 53-10 6-19 17-19 25s-10 20-22 26c-27 14-78 67-78 80 0 5-5 9-11 9s-20 11-31 25-26 25-34 25-14 5-14 10c0 6-11 8-27 4-26-7-27-6-13 11s14 17-7 4c-14-8-18-16-11-20 18-11-1-29-31-29-21 0-37-11-61-40-18-22-36-37-41-35-10 7-49-34-49-52 0-7-15-20-32-29-34-17-88-69-88-83 0-5-6-14-14-20-12-10-16-8-21 10-6 19 1 30 44 67 35 30 51 51 51 68 0 24 14 32 25 14 3-5 1-10-6-10s-9-3-6-6c10-10 57 39 57 59 0 22 50 73 59 61 8-12 21-11 47 4 12 6 24 9 27 6s8 0 12 5c11 19-25 25-38 7-8-10-19-15-29-11-14 5-15 10-5 20 6 7 18 10 26 7 10-4 12-1 6 8-6 10-4 12 10 6 10-3 34-1 54 5 26 9 36 9 39 0 2-6 12-11 21-11 10 0 33-15 52-34 18-19 37-32 41-30 4 3 12-5 17-18 11-27 128-141 134-130 2 4 3 2 1-4-1-6 6-17 17-25 23-16 25-49 4-49-8 0-15-7-15-15 0-15-39-61-41-47 0 4-4-3-9-16-5-12-18-25-27-29-19-7-123-107-123-118 0-3-16-20-36-37-34-30-35-33-17-46 10-7 17-18 15-23-1-6 2-8 7-5 8 6 51-23 81-54 20-21 38-19 56 4 11 16 14 17 14 4 0-9 2-23 5-30 3-8-4-23-15-35s-16-24-11-28c5-3 11 0 13 5 3 11 44-25 104-91 22-23 29-40 25-52-4-10-11-18-15-17-5 1-24-17-43-41-45-57-131-149-164-174-14-11-31-30-38-43-10-18-15-20-32-12-11 6-23 9-28 6-4-3-21 9-37 26s-22 28-14 24-1 8-21 26-39 41-43 51c-3 10-12 17-19 14-6-2-23 8-36 22s-20 20-17 14c5-8 1-13-9-13-11 0-15 5-11 15 3 9-3 19-14 25s-20 17-20 25c0 7-13 20-30 28-28 14-31 14-55-10-14-14-25-30-25-35s-4-7-9-4-16-4-24-17c-8-12-44-52-80-88-35-36-70-75-76-87-6-11-25-28-43-36-31-16-32-16-67 16-20 18-39 39-44 46-4 6-14 12-21 12-18 0-62 51-73 84-5 16-16 33-24 37-83 40-94 47-90 60 2 8 4 24 4 36-1 13 4 23 11 23 20 0 99 84 89 94-4 3-1 6 6 6s11 6 8 13c-3 8-1 20 4 28 8 14 12 15 44 18 8 0 23 14 34 31 10 16 21 27 24 24 4-4 4 3 2 15-3 14 0 21 7 19 13-5 48 21 48 35 0 5-24 33-52 62-67 67-108 115-108 126 0 5-10 9-22 9-19 0-20-2-8-10 8-5 10-10 4-10-18 0-24 13-13 27 15 17-15 53-43 53-10 0-26 8-37 19-17 17-17 21-3 47 8 16 20 32 26 36s11 13 11 20c1 7 6 12 13 11 7-2 12 3 12 10 0 6 18 25 40 41 30 23 39 35 34 49-4 14-3 17 6 12 8-5 18-1 27 11 35 50 100 111 115 111 9-1 16-5 15-10zm711-129c42-40 90-87 105-105 26-30 27-35 15-60-7-15-23-32-36-39-12-6-57-49-100-95-42-46-89-96-104-111-47-45-39-75 39-147 36-33 70-61 75-61 4 0 8-6 8-14 0-7 23-35 51-61 85-79 84-89-21-202-47-50-63-61-99-67-58-9-84 12-75 60 5 27 2 35-20 49-16 11-35 15-50 11-31-8-48 13-40 50 7 36-24 70-55 61-11-3-25 1-32 9-6 8-19 14-28 14-19 0-83-41-123-78-25-23-31-24-54-13-22 10-30 9-45-5-11-9-19-28-19-41 0-12-4-23-10-23-5 0-25-13-43-30-19-16-37-27-40-24-3 4-14 3-24-1-24-10-64-6-82 8-11 10-13 9-9-3 2-8 19-16 36-18 31-3 46-22 18-22-29 0-47 13-77 59-31 46-31 46-4 21 26-24 27-24 14-2-8 12-22 25-32 28-11 3-27 14-37 24-18 18-18 19 1 36 10 9 19 23 19 30 0 17 42 66 126 149 118 117 120 133 29 228-38 39-70 65-77 61-6-4-8-3-5 3 9 14-24 105-43 120-8 7-24 12-35 10-15-1-20 4-20 22 0 13 6 26 14 29 9 3 11 0 6-8-5-9-4-11 3-6 7 4 12 14 12 23 0 8 6 13 13 10 10-4 12 3 9 24-2 16 0 29 6 29s14 10 18 23c10 31 54 67 84 67 28 0 88-36 71-41-6-2-2-10 10-17 17-11 20-11 14 0-3 7 5 0 18-16 14-16 30-25 36-22 7 5 8 1 4-10-4-10-2-15 3-11 6 3 16 2 24-4 13-8 13-9 0-9-9 0-7-5 8-16 13-9 34-33 48-55 28-44 46-49 72-17 9 12 28 32 42 45s65 62 115 108c49 47 96 85 105 85 8 1 26 7 40 15s31 14 38 15c7 0 48-33 90-72zm-970-77c-13-15-25-27-27-25-4 4 39 54 47 54 2 0-7-13-20-29zm102-31c0-5-7-10-16-10-8 0-12 5-9 10 3 6 10 10 16 10 5 0 9-4 9-10zm110-260c0-5-2-10-4-10-3 0-8 5-11 10-3 6-1 10 4 10 6 0 11-4 11-10zm263-558c-11-15-27-28-36-30-11-2-5 9 16 30 38 39 49 39 20 0zm-322-118c9-11 2-9-18 6-18 13-33 25-33 27 0 8 38-17 51-33zm829 22c0-2-8-10-17-17-16-13-17-12-4 4s21 21 21 13z"/>
<path d="m2446 1281c-21-23-4-38 18-15 17 17 21 34 8 34-5 0-17-9-26-19z"/>
<path d="m2200 1181c0-6 4-13 10-16s7 1 4 9c-7 18-14 21-14 7z"/>
<path d="m1740 1071c0-21 43-58 48-41 4 11-29 59-40 60-5 0-8-9-8-19z"/>
<path d="m1820 999c0-5 5-7 10-4 6 3 10 8 10 11 0 2-4 4-10 4-5 0-10-5-10-11z"/>
<path d="m1851 954c15-16 25-21 28-13 2 7-4 18-15 26-30 22-39 15-13-13z"/>
<path d="m2709 686c14-14 26-24 29-22 7 8-8 25-31 37-21 11-21 10 2-15z"/>
<path d="m2783 653c-14-5-18-33-5-33 10 0 32 22 32 32 0 9-8 9-27 1z"/>
<path d="m1850 599c0-5 5-7 10-4 6 3 10 8 10 11 0 2-4 4-10 4-5 0-10-5-10-11z"/>
<path d="m2887 466c3-14 9-24 13-21 11 7 6 38-7 42-6 2-8-7-6-21z"/>
<path d="m2521 337c-8-10-7-18 3-32 9-12 13-14 13-4 0 8 4 22 8 32 8 20-8 23-24 4z"/>
<path d="m2102 319c-27-25-28-33-2-26 10 3 21 0 22-5 2-6 9-4 15 3 9 11 8 18-1 31-12 16-14 16-34-3z"/>
<path d="m2063 253c-9-23-23-33-50-33-24 0-31-14-13-25 6-3 10-1 10 5 0 7 6 10 14 7 7-3 28 10 47 29 25 26 29 34 16 34-10 0-21-8-24-17z"/>
<path d="m1878 453c7-3 16-2 19 1 4 3-2 6-13 5-11 0-14-3-6-6z"/>
<path d="m487 1246c-10-25-9-56 2-56 12 0 19 32 11 54-6 18-7 18-13 2z"/>
<path d="m105 980c-8-13 5-13 25 0 13 8 13 10-2 10-9 0-20-4-23-10z"/>
<path d="m1266 981c-3-5 6-8 20-8 19 0 22 2 13 8-18 11-26 11-33 0z"/>
<path d="m1068 973c12-2 30-2 40 0 9 3-1 5-23 4-22 0-30-2-17-4z"/>
<path d="m1346 951c-6-9 35-24 43-15 6 5-18 24-31 24-4 0-9-4-12-9z"/>
<path d="m1197 614c-11-11-8-46 3-39 6 3 10 1 10-4 0-6 7-11 17-11 14 0 15 2 1 18-9 9-17 23-19 30-3 7-8 10-12 6z"/>
<path d="m1351 591c-9-16-8-18 9-14 21 6 26 18 11 28-6 3-15-3-20-14z"/>
<path d="m115 591c-2-4 0-13 4-20 9-14 62-11 62 4 0 12-59 26-66 16z"/>
<path d="m268 583c-29-7-20-23 13-23 19 0 29 4 27 12-5 14-17 17-40 11z"/>
<path d="m1015 570c-3-5-2-10 4-10 5 0 13 5 16 10 3 6 2 10-4 10-5 0-13-4-16-10z"/>
<path d="m455 550c-3-5-2-10 4-10 5 0 13 5 16 10 3 6 2 10-4 10-5 0-13-4-16-10z"/>
<path d="m917 393c-4-3-7-11-7-17s5-5 12 2c6 6 9 14 7 17-3 3-9 2-12-2z"/>
<path d="m1002 375c0-16 2-22 5-12 2 9 2 23 0 30-3 6-5-1-5-18z"/>
<path d="m520 321c0-5 5-13 10-16 6-3 10-2 10 4 0 5-4 13-10 16-5 3-10 2-10-4z"/>
<path d="m900 280c0-16 5-30 10-30 6 0 10 7 10 15s4 15 9 15 11 7 15 15c4 11-1 15-19 15-21 0-25-5-25-30z"/>
<path d="m927 243c-12-20-17-54-6-48 16 11 10-11-12-39-22-27-8-37 17-11 10 10 14 30 12 62-2 29-6 43-11 36z"/>
</g>
</svg>
