<?xml version="1.0" encoding="UTF-8"?>
<!DOCTYPE svg  PUBLIC '-//W3C//DTD SVG 20010904//EN'  'http://www.w3.org/TR/2001/REC-SVG-20010904/DTD/svg10.dtd'>
<svg width="134pt" height="78pt" version="1.0" viewBox="0 0 134.000000 78.000000" xmlns="http://www.w3.org/2000/svg">
<metadata>Created by potrace 1.10, written by Peter Selinger 2001-2011</metadata>
<g transform="translate(0 78) scale(.1 -.1)" fill="#fff">
<path d="m648 763c6-2 18-2 25 0 6 3 1 5-13 5s-19-2-12-5z"/>
<path d="m580 750c14-4 36-8 50-9 20-1 22 1 10 9-8 5-31 9-50 9-32-1-33-2-10-9z"/>
<path d="m685 750c-7-11 9-11 45 0 24 8 24 8-7 9-17 1-35-3-38-9z"/>
<path d="m530 743c8-3 19-11 23-17 6-7 7-6 4 4-2 8-12 16-23 17-13 2-15 1-4-4z"/>
<path d="m756 741c-4-5 3-7 14-4 23 6 26 13 6 13-8 0-17-4-20-9z"/>
<path d="m482 733c-6-2-9-10-5-16 4-7 0-8-13-3-15 6-17 5-7-5s17-9 33 9c20 21 18 26-8 15z"/>
<path d="m794 728c-4-7-3-8 4-4 6 4 22 2 34-4 22-11 22-10 4 4-24 19-32 20-42 4z"/>
<path d="m766 704c-8-21-8-24 5-24 5 0 8 4 5 9s7 8 23 6c17-1 48-18 72-38 48-42 74-50 39-12-12 13-26 22-30 20s-7 2-7 10c0 21 7 19 47-17l35-33-30 33c-32 36-74 65-60 41 6-9 3-10-11-4-10 4-28 9-40 10-11 1-25 4-31 8s-14 0-17-9z"/>
<path d="m435 700c6-10 4-12-8-7-9 3-19 1-23-5-4-7-3-8 4-4 22 14 12-12-10-27-13-8-20-17-17-21 3-3 20 9 38 28 24 24 29 36 20 41-8 6-10 4-4-5z"/>
<path d="m343 638c-22-24-46-54-52-68-10-21-9-22 1-6 33 48 50 65 61 62 7-1 8-1 4 2-5 2 2 15 14 28s20 24 18 24c-3 0-23-19-46-42z"/>
<path d="m775 658c11-6 22-15 25-19s19-10 35-14c25-5 23-2-15 19-25 14-49 25-55 25-5 0-1-5 10-11z"/>
<path d="m347 599c7-7 15-10 18-7s-2 9-12 12c-14 6-15 5-6-5z"/>
<path d="m320 586c0-2 7-9 15-16 13-11 14-10 9 4s-24 23-24 12z"/>
<path d="m665 574c-104-18-241-66-334-115l-74-39 6 43c3 24 9 52 12 62 6 18 5 18-5 3-6-10-14-41-17-68-5-47-10-54-62-95-31-24-74-67-95-95-32-42-38-58-38-96 1-26 6-52 13-60 20-24 90-37 204-40 61-1 124-8 140-14 23-9 39-9 70 0 22 6 58 15 80 20 22 4 67 15 100 23s69 14 80 15c52 2 120 14 123 21 2 5 12 6 24 3 13-3 24 1 30 12 5 9 16 16 25 16s24 6 32 13c9 8 53 29 99 47 104 41 188 95 202 131 28 66-35 143-154 186-117 43-311 54-461 27zm362-25c56-12 100-26 98-30-3-4 5-5 17-2 13 3 20 2 16-2-9-9 36-35 60-35 8 0 12-3 9-7-4-3-2-12 4-20 9-10 7-13-7-13-13-1-8-6 14-15 17-8 32-18 32-24 0-25-21-61-35-61-9 0-14-4-11-9 7-11-22-23-36-14-7 3-8 1-4-5 4-7 1-12-8-12s-16-4-16-9-12-14-27-19c-16-6-52-20-81-32-30-11-51-16-48-11 4 5 1 13-5 17-8 4-9 3-5-4s2-12-3-12c-6 0-10-5-8-12 1-6-10-18-26-25-36-19-198-59-266-67-29-4-57-9-61-11-12-7-170-35-202-35-14 0-28 5-30 10-2 7-24 7-65 2-65-9-215 10-221 28-2 5-9 7-15 4-8-2-13 8-14 28-3 41 23 69 88 97 27 12 49 26 49 33s-5 7-15-2c-8-6-20-8-26-4-7 4-10 3-7-2s-9-17-28-26c-19-10-34-13-34-8 0 16 150 157 204 192 6 4 21 8 34 8 15 0 21 4 16 12-5 7-2 9 9 5 8-3 18 0 20 7 3 7 29 21 59 31 29 9 58 21 64 26s18 7 27 3c8-3 18-1 22 5 3 6 13 11 21 11s13-4 9-9c-3-5-1-13 5-16 6-4 9-1 8 6-3 13 35 24 127 39 92 14 189 10 292-11z"/>
<path d="m845 445c-44-6-81-13-82-13-2-1-11-2-20-2s-14-2-11-5 63 1 134 9c71 9 149 17 174 19s9 4-35 4-116-5-160-12z"/>
<path d="m1113 454c3-4 26-9 49-11 24-3 40-2 35 3-4 4-26 9-49 11s-39 1-35-3z"/>
<path d="m636 413c-4-4-31-10-86-19-37-6-113-35-107-41 2-2 21 3 43 11 21 7 83 21 137 31 53 9 97 19 97 21 0 4-80 1-84-3z"/>
<path d="m837 384c-3-3-27-7-54-9-57-3-170-24-198-36-11-5-29-11-40-13-40-8-65-19-65-28 0-5-9-4-19 2-17 9-19 7-16-10 2-11 0-22-6-25-5-4-9-25-9-47 0-23 3-38 7-35 3 4 14 1 22-7 9-8 35-19 57-24 45-10 194-4 194 8 0 4 20 13 44 19 49 12 113 46 134 71 41 49 38 106-6 116-15 4-30 11-33 16-3 4-8 6-12 2zm44-34c12-7 19-21 19-39 0-99-309-188-432-125-32 16-38 53-13 78 52 52 369 116 426 86z"/>
<path d="m638 283c7-3 16-2 19 1 4 3-2 6-13 5-11 0-14-3-6-6z"/>
<path d="m250 356c0-2 7-7 16-10 8-3 12-2 9 4-6 10-25 14-25 6z"/>
<path d="m378 344c-16-8-28-16-28-18 0-5 68 19 76 27 13 13-20 7-48-9z"/>
<path d="m281 314c-30-13-52-26-50-29 7-7 49 6 49 15 0 5 14 11 30 15 17 4 30 11 30 16 0 11 5 13-59-17z"/>
<path d="m433 565c0-8 4-12 9-9s6 10 3 15c-9 13-12 11-12-6z"/>
<path d="m310 560c0-5 1-11 2-12 2-2-5-14-15-28-19-27-22-50-7-50 6 0 9 3 9 8-3 17 2 33 9 29 4-3 8 10 8 29 1 19 0 34-2 34s-4-4-4-10z"/>
</g>
</svg>
